1 10 20
100 200 125
201 210 89
900 1000 174
2001 1000 182
1 1000 179
500 2500 209
1620 3166 217
126700 168204 383
335896 816667 509
646239 811881 504
670177 647597 442
333562 462217 449
925961 373718 525
789105 361042 509
27827 303119 443
370236 295030 441
434729 709380 509
541183 609204 452
338663 793024 509
798295 962377 525
831997 356831 509
420365 367579 449
458933 463876 444
508745 143518 449
888042 399865 525
294497 594821 470
960459 210351 525
818778 960591 525
829579 440324 509
16797 588056 470
805214 164490 509
461563 653360 509
978031 41021 525
699176 217946 509
247797 140729 443
701498 955665 525
461012 986756 525
459749 10441 449
187474 948824 525
800112 171310 509
528539 909466 525
79203 857300 525
288979 498298 449
77124 479816 449
871959 327890 525
310681 976177 525
722014 608002 509
464899 256793 449
836351 29851 509
430739 364272 449
167327 615854 470
134976 40274 354
992953 396685 525
225061 115784 386
171057 446067 449
91705 854332 525
751905 226730 509
369475 868526 525
995616 159915 525
277189 275292 314
797114 380068 509
478673 125139 449
559546 298286 470
327125 938137 525
814597 394019 509
913950 190261 525
883912 547768 525
998673 433022 525
457150 508843 444
721293 325301 509
789625 472505 509
615792 440618 470
712005 344390 509
74957 15050 340
525186 597988 452
336341 977889 525
922083 571089 525
517580 223582 470
337045 480112 449
947329 373786 525
11274 497387 449
745924 335883 509
637895 510976 509
636731 471807 509
93213 661180 509
708757 818438 468
201952 368330 443
721203 633698 504
148790 362278 443
743224 338308 509
336258 643602 509
696238 819587 504
8797 429573 449
109115 469201 449
1735 892906 525
483664 658951 509
701081 361078 509
559232 472501 470
791364 664619 504
65434 551959 470
775405 181587 509
908965 481530 525
215242 449956 449
80438 952685 525
876601 386631 525
135641 617162 470
463765 944036 525
23145 964170 525
356248 383567 423
263943 673064 509
774101 924216 525
667801 263233 509
421819 22461 449
767730 108630 509
591762 31393 470
553370 567403 421
904224 148833 525
277956 159882 443
676169 465536 509
788911 592613 509
332066 493087 449
456452 369687 449
357171 148828 443
179262 387206 443
460315 637878 509
773800 105393 509
329417 912242 525
3425 312854 443
834870 477765 509
722249 510685 509
18506 35251 311
154378 932120 525
500709 588583 470
594192 749693 509
880433 430353 525
108821 111420 310
335002 128919 443
460519 934916 525
242794 959289 525
231039 133527 443
356177 408985 436
609295 104352 470
557708 557336 284
662053 364552 509
48489 407956 443
429530 15326 449
731512 321106 509
946548 718083 525
464895 372401 449
263791 667418 509
600321 687907 509
687280 776779 504
732032 691994 504
582735 68315 470
997126 326803 525
862859 409304 525
330911 302519 384
311894 395408 441
730394 92374 509
316638 314111 353
533986 28028 470
37971 936897 525
108218 514286 470
864149 863140 344
768652 549331 509
568532 391879 470
393978 215643 443
985231 145389 525
166497 829287 509
635841 210362 509
379608 321082 441
602690 282184 470
642131 715813 504
90045 531159 470
931894 906223 476
984697 367540 525
846198 885688 432
903258 264307 525
587947 991792 525
209785 616462 470
382753 259914 441
43221 339308 443
744207 39914 509
355221 755876 509
720568 929674 525
474153 536426 470
241122 539263 470
875655 660506 525
829375 134914 509
583949 191340 470
683069 954194 525
930793 381822 525
480417 616448 470
717201 357686 509
706791 853171 525
868795 34491 525
702477 17469 509
444196 389057 449
161063 562629 470
345087 796017 509
369321 584230 470
826614 568617 509
155912 325487 443
248384 766746 509
784781 617769 509
59759 485891 449
805979 635802 504
835479 956393 525
627738 221806 509
8576 806544 509
926565 580938 525
701836 426632 509
683910 808213 504
681404 854418 525
314555 775716 509
92384 243060 443
422361 7182 449
367320 966360 525
862747 546404 525
879028 73010 525
518650 629107 509
838118 966170 507
767187 819082 468
404769 138360 443
495745 492172 426
761212 362537 509
218099 589323 470
604524 105454 470
636042 943825 525
989961 615601 525
244512 821355 509
325512 524533 470
205102 147722 383
410655 555393 470
808549 6214 509
694123 827150 504
460609 259496 449
200138 523943 470
702910 191021 509
311287 678137 509
13965 581650 470
724624 449233 509
614331 344474 470
185010 656255 509
981211 2349 525
187711 83048 383
63098 275791 443
656969 1153 509
831367 297245 509
803162 127038 509
575787 174190 470
924850 608650 525
856317 832198 525
915862 808764 525
123100 694953 509
404766 424475 449
151289 774750 509
278607 739467 509
686600 117754 509
447433 81970 449
705237 748711 424
664569 133728 509
463289 894612 525
610280 391414 470
783110 993575 525
