1 10 20
100 200 125
201 210 89
900 1000 174
1 1 1
1 2 2
999998 999999 259
10 5 20
35635 291305 443
716477 109904 509
692339 312517 509
678723 422367 509
302657 668335 509
632905 793990 504
571630 109896 470
88835 20921 351
571008 442154 470
888263 486355 525
358501 599783 470
559388 80132 470
602002 802941 509
287094 472466 449
260302 419735 449
559391 881027 525
208575 338819 443
946966 104885 525
846628 241130 525
420286 433495 418
484507 813622 509
762708 694439 504
587464 108159 470
1305 393994 443
676882 925521 525
833394 318123 509
716648 466073 509
871202 432407 525
496160 900440 525
449276 865000 525
105462 308306 443
540640 533895 408
160437 255005 443
328996 286792 389
552081 735211 509
129123 598273 470
865769 248901 525
511468 287451 449
854325 239589 525
909329 16371 525
377619 299341 441
492814 871851 525
196753 643850 509
22480 75876 340
995412 71865 525
147183 662966 509
358307 449450 449
702739 350198 509
750667 605860 509
968746 279580 525
453532 547769 470
977708 797086 525
512795 436132 470
160068 455664 449
133458 209782 383
595082 382572 470
466065 848393 525
129595 362689 443
261875 435827 449
844493 571497 525
933206 840552 476
400652 253653 441
86178 552377 470
287162 330176 389
364908 850660 525
810569 303086 509
799709 954477 525
981196 458454 525
476644 90953 449
451503 93655 449
764819 636001 504
192974 675200 509
990937 163162 525
98190 839162 525
402584 798810 509
547732 652533 509
255616 588095 470
433237 7928 449
91535 734214 509
509172 568061 470
166293 519613 470
552444 747288 509
441728 641570 509
210916 315024 443
646886 416791 509
469643 225913 449
886257 485344 525
827600 942682 525
997295 856378 507
685493 631715 442
939857 551624 525
873404 418592 525
2377 148082 375
247518 628324 509
653675 713558 504
552403 2083 470
416443 565593 470
249746 291301 407
342225 296798 384
64707 587124 470
309268 860113 525
131280 362035 443
606546 278125 470
537223 919648 525
510860 448231 444
390688 229073 443
159386 836018 509
169616 996999 525
166546 700605 509
391594 686836 509
446405 269471 449
719747 378048 509
891518 295510 525
778361 880144 525
603188 779110 509
461414 410063 444
569466 762972 509
624648 900139 525
191957 528456 470
270867 711954 509
313726 202938 443
247866 897478 525
713138 888231 525
635666 800611 504
671840 813728 504
742433 293476 509
135130 981560 525
777453 18569 509
129356 873251 525
269785 834518 509
620079 734264 509
504692 326455 449
833844 907385 525
139929 948929 525
625074 962361 525
826588 91465 509
146197 895899 525
374144 509632 449
970167 646153 525
149994 239084 443
606605 190763 470
569216 760887 509
558016 140274 470
336598 828124 509
131762 296775 443
159598 287654 443
328386 818547 509
702479 998853 525
950520 677370 525
139803 579860 470
271575 977887 525
904807 482070 525
578400 366181 470
369140 425786 449
751661 948857 525
577039 573367 390
965722 382954 525
545680 84800 470
864055 208850 525
813441 296050 509
451431 388964 449
288837 946369 525
417645 7132 449
327609 17944 443
188278 566137 470
213589 201189 373
416925 175795 449
44785 267186 443
978401 238668 525
916272 57451 525
58515 2498 340
84757 542674 470
138694 12093 354
487557 428427 444
566279 164019 470
126171 717264 509
314043 62344 443
170905 163309 352
274485 5975 443
366109 451308 449
996719 711402 525
372964 954237 525
115849 310906 443
265941 210336 443
35056 354458 443
672466 571186 509
340392 508225 449
348856 564568 470
775092 501826 509
566020 634443 509
196751 702186 509
818082 670978 504
672856 497968 509
402029 654045 509
210286 550936 470
573464 683772 509
86837 463409 449
729003 161355 509
548571 646420 509
683488 642512 442
