635894 452847 509
696258 806719 504
672938 173161 509
420569 475805 444
767768 479421 509
342699 955263 525
105864 807483 509
276324 955493 525
428259 956413 525
521878 623331 452
771134 762546 468
846021 947577 507
815205 328355 509
435890 566460 470
578155 621767 447
123402 208191 383
527986 513816 439
990509 279195 525
798439 211067 509
552235 598727 434
431388 751332 509
604083 87283 470
331270 458823 449
730791 406307 509
564831 619354 447
913619 788871 525
719399 479274 509
16327 143352 375
293107 987515 525
363347 483090 449
527203 730043 509
757792 522773 509
213463 334553 443
672354 224231 509
71576 245779 443
422167 409797 449
508478 866766 525
300887 164421 443
400210 22884 443
294008 76776 443
488732 429649 444
878544 915247 476
877824 120971 525
487627 880691 525
633249 748367 504
496592 659151 509
374408 799979 509
656346 106288 509
707152 838187 525
570609 732460 509
552075 347114 470
565458 467002 470
659455 624631 509
486765 298210 449
391173 12177 443
399287 848041 525
542678 252400 470
999237 152988 525
60776 464192 449
750131 166846 509
333181 972460 525
713032 940488 525
553584 182773 470
739157 853927 525
318704 157754 443
284127 517170 470
960037 978149 458
663171 789549 504
270641 618114 470
274672 628048 509
861755 97946 525
372155 763921 509
162904 173524 352
751811 723661 424
292616 554550 470
242526 156252 443
144869 478766 449
826202 447970 509
286898 535848 470
953514 32698 525
636302 160505 509
730194 353004 509
304692 275098 389
563313 361477 470
568716 746843 509
628700 745486 504
792128 902319 525
982588 231472 525
66433 645024 509
66611 243820 443
490682 211639 449
503201 315745 449
960831 357806 525
265904 74391 443
701045 856777 525
353774 492753 449
161088 184011 365
115007 341734 443
196407 19280 383
924090 653673 525
115169 112610 305
534426 146271 470
707045 534472 509
26827 777032 509
833980 305052 509
242909 182499 443
70549 170190 383
579925 331204 470
183067 519213 470
928774 139099 525
132904 98957 354
979882 568824 525
139368 822720 509
544092 79870 470
580128 883572 525
487896 362675 449
741157 541360 509
205501 246113 443
508889 76890 449
616558 339862 470
774328 658323 504
856966 702352 525
117107 265855 443
896287 600212 525
633163 468858 509
361944 50925 443
562917 849138 525
348991 249430 441
327941 973448 525
769796 604390 509
247946 977490 525
956806 594273 525
79547 166862 383
653064 187555 509
499549 34826 449
881873 453972 525
361828 123468 443
894536 826206 525
13886 363178 443
628945 182453 509
244997 279562 407
327559 40671 443
963416 541509 525
385235 313405 441
103195 784929 509
539077 782345 509
412832 253971 449
560803 632059 509
552669 292478 470
845412 749600 525
488099 767182 509
975182 53861 525
158984 563834 470
476537 547160 470
122353 873668 525
1525 681587 509
859373 537212 525
40163 518777 470
987027 714778 525
360291 393371 436
258902 19156 443
16979 329933 443
832903 593981 509
541461 168033 470
95104 123658 354
623074 695983 509
573711 421999 470
134799 594375 470
559603 337597 470
130138 356358 443
157413 776356 509
842695 4992 525
422154 390753 449
200504 147205 383
28728 585844 470
680099 54875 509
661909 533541 509
899264 254833 525
686051 602581 509
343081 468021 449
150588 615742 470
238961 503362 449
389099 45502 443
834872 33399 509
262964 266278 407
682440 305666 509
571032 74006 470
322417 780306 509
424008 24386 449
457370 228997 449
183994 330554 443
727874 711667 411
842356 681967 525
683137 319199 509
866446 728243 525
883931 66165 525
588103 317901 470
158901 406240 443
804073 995408 525
417848 780019 509
635434 284748 509
1717 298005 443
553786 42857 470
165867 967301 525
998905 64956 525
692860 16084 509
700092 61444 509
436944 464300 444
275896 770441 509
634934 792555 504
698907 766492 504
120048 140821 344
217812 843600 525
395907 201938 443
425899 387304 449
452403 860887 525
396950 550897 470
896811 66566 525
416024 609781 470
873224 206630 525
830396 363374 509
566827 309209 470
687070 433702 509
919943 651075 525
223344 66665 386
203551 460195 449
287547 403851 441
484943 327286 449
742824 277192 509
581908 31344 470
40046 481318 449
232084 282888 407
230456 962646 525
99394 576074 470
257161 102255 443
86217 645833 509
460591 984382 525
624223 599937 447
128883 279034 443
309749 274593 389
842030 44436 525
876094 692260 525
557863 797094 509
435330 768397 509
319666 757039 509
436705 67228 449
783377 610222 509
985041 492876 525
706827 804345 468
894465 888637 370
