387858 370750 423
220599 478496 449
525876 615687 452
937261 445594 525
57573 63732 335
951871 954196 414
52547 704196 509
159122 113250 383
585757 4513 470
284257 756520 509
888937 42821 525
927916 26314 525
323564 851778 525
765619 616012 509
524397 123084 470
82459 985898 525
770109 337185 509
246928 46898 443
383477 288539 441
897946 81789 525
20424 878532 525
474896 718723 509
574114 299379 470
352894 32448 443
328191 797183 509
28488 499882 449
911896 547930 525
251321 16176 443
328542 512728 470
137832 958668 525
985582 186268 525
184240 145670 383
459407 430517 400
632182 359735 509
611392 596852 403
521572 845794 525
244983 385895 441
981118 331186 525
65801 171696 383
222333 877136 525
171158 302983 443
514481 48804 470
304037 372239 441
312575 323246 371
593576 412009 470
989551 882404 507
657651 811785 504
714573 99670 509
671784 613864 509
163531 548544 470
259923 687059 509
167659 995477 525
269631 527379 470
146675 198526 383
74066 301773 443
374190 83907 443
493010 164960 449
426229 487630 444
832318 657839 504
264528 955129 525
592670 957943 525
235682 246899 368
205730 984149 525
682870 582668 509
257842 652063 509
541975 419282 470
646931 974901 525
689723 901655 525
799054 338692 509
99088 898469 525
330769 614289 470
950043 32167 525
968704 920229 507
601814 927446 525
594357 298487 470
916324 847872 476
649928 129985 509
901389 489041 525
715744 204019 509
970455 956520 414
375842 205536 443
284510 522465 470
468337 276452 449
521216 903253 525
118396 905181 525
189464 470644 449
461270 849875 525
787538 498671 509
897026 269766 525
556369 373144 470
515837 126513 470
497719 862061 525
416534 306121 449
87348 656840 509
527094 148033 470
362207 237443 441
726762 804565 468
313749 636722 509
878213 928675 476
290615 708925 509
165590 552907 470
763591 754831 380
760764 936314 525
664898 895235 525
511730 41497 449
69930 828897 509
829659 508989 509
691547 588556 509
688684 993572 525
205341 545103 470
399880 778558 509
591716 811752 509
943539 965891 414
771293 78573 509
652565 610381 509
39773 320735 443
9868 263688 443
153785 194275 383
941665 109562 525
245279 904129 525
726971 464905 509
353317 373026 410
977228 788186 525
207355 823791 509
266857 911084 525
159759 831232 509
649494 900626 525
210877 261009 443
236058 718841 509
103203 479768 449
996894 548983 525
774727 791114 437
686696 799444 504
179383 672870 509
659296 226239 509
817192 268686 509
22403 951966 525
936137 8457 525
617587 738881 509
995636 180219 525
216929 787617 509
293734 635530 509
7532 487165 449
823717 312314 509
370884 91841 443
482012 228661 449
581621 44448 470
348897 788190 509
635533 187375 509
167871 84210 383
107511 268731 443
322833 832606 509
542117 393028 470
139954 741936 509
311352 886604 525
933573 625284 525
49860 143140 375
335780 822262 509
667680 559142 509
270537 38502 443
998846 521469 525
390677 745631 509
207983 626721 509
854376 365210 525
493988 108629 449
174183 985095 525
608582 747364 509
749770 517111 509
710392 947464 525
260375 38256 443
567227 702775 509
263851 430984 449
177590 979116 525
481006 246414 449
334323 674574 509
857858 363083 525
481685 469114 413
261558 546145 470
73997 914970 525
943464 682139 525
5580 833716 509
247327 924384 525
62373 237304 443
938348 637942 525
69608 886213 525
531387 266686 470
829983 438688 509
333204 691528 509
445296 209772 449
280557 242876 407
803687 587702 509
105352 803985 509
971927 274600 525
737420 389881 509
821117 233340 509
222794 573037 470
236694 79931 443
285005 826204 509
840129 427942 525
346556 770125 509
530223 294154 470
49003 986324 525
197153 128833 383
179867 596313 470
400658 242268 441
281456 924796 525
112119 291253 443
701690 947136 525
162426 951252 525
118492 665614 509
340043 341751 335
297258 326460 384
227553 76433 386
732766 157670 509
442246 118424 449
372489 538377 470
661189 510514 509
798081 403870 509
927265 660254 525
724854 716339 411
585142 732556 509
46323 599967 470
447080 486795 444
590687 423847 470
944450 205620 525
482016 761616 509
566879 145158 470
324658 736571 509
645040 232393 509
908688 399860 525
681351 946519 525
265288 387999 441
274681 578310 470
87223 551422 470
305778 518678 470
240416 623785 470
699290 885662 525
773664 597053 509
271999 224975 443
411917 179594 449
187542 41053 383
324753 389680 441
808280 661550 504
759015 443942 509
589308 891589 525
650525 644557 385
50370 32250 324
664528 705635 504
100920 397579 443
712861 445022 509
